<?xml version="1.0" encoding="UTF-8" standalone="no"?>
<svg
   xmlns:dc="http://purl.org/dc/elements/1.1/"
   xmlns:cc="http://creativecommons.org/ns#"
   xmlns:rdf="http://www.w3.org/1999/02/22-rdf-syntax-ns#"
   xmlns:svg="http://www.w3.org/2000/svg"
   xmlns="http://www.w3.org/2000/svg"
   id="svg2"
   xml:space="preserve"
   width="512px"
   viewBox="0 0 512 512"
   version="1.1"
   style="enable-background:new 0 0 512 512;"
   height="512px"><metadata
     id="metadata14"><rdf:RDF><cc:Work
         rdf:about=""><dc:format>image/svg+xml</dc:format><dc:type
           rdf:resource="http://purl.org/dc/dcmitype/StillImage" /><dc:title></dc:title></cc:Work></rdf:RDF></metadata><defs
     id="defs12" /><g
     id="_x34_4-bitbucket"><g
       id="g5"><path
         id="path7"
         style="fill:#2684FF;"
         d="M40.929,49.178c-8.108-0.092-14.835,6.358-14.928,14.559c0,0.829,0.093,1.75,0.186,2.58    l62.566,379.735c1.566,9.582,9.86,16.68,19.627,16.77h300.118c7.281,0.093,13.546-5.159,14.745-12.347L485.81,66.409    c1.29-8.016-4.146-15.572-12.163-16.862c-0.829-0.091-1.658-0.184-2.578-0.184L40.929,49.178L40.929,49.178z M304.375,323.59    h-95.831l-25.895-135.456h144.945L304.375,323.59L304.375,323.59z" /></g></g><g
     id="Layer_1" /></svg>